{
  "project_info": {
    "project_number": "1040832981738",
    "project_id": "sarevids",
    "storage_bucket": "sarevids.appspot.com"
  },
  "client": [
    {
      "client_info": {
        "mobilesdk_app_id": "1:1040832981738:android:4a6b0f73cda9b12cf0c593",
        "android_client_info": {
          "package_name": "com.SareVids"
        }
      },
      "oauth_client": [
        {
          "client_id": "1040832981738-lv9g9v8tre9gv95enlmq1va1kv8tcesi.apps.googleusercontent.com",
          "client_type": 3
        }
      ],
      "api_key": [
        {
          "current_key": "AIzaSyB1MNRfNl-T5du-AutuTppGeQMwvv5AqwY"
        }
      ],
      "services": {
        "appinvite_service": {
          "other_platform_oauth_client": [
            {
              "client_id": "1040832981738-lv9g9v8tre9gv95enlmq1va1kv8tcesi.apps.googleusercontent.com",
              "client_type": 3
            }
          ]
        }
      }
    }
  ],
  "configuration_version": "1"
}